13 Chronological Cartograpms | HDIS: Analysis of Prosopographical Data–with R
…
personaje_with_places <- PUA$personaje_lugar %>%
  filter(idPersonaje %in% personaje_with_dates$idPersonaje) %>%
  select(idPersonaje, idLugar) %>%
  left_join(PUA$lugar) %>%
  select(idPersonaje, idLugar, lat, lng) %>%
  left_join(PUA$lugar_con_imanes) %>%
  filter(!is.na(region)) %>%
  select(idPersonaje, idLugar, lat, lng, region, latR, lngR)

## Joining with `by = join_by(idLugar)`
## Joining with `by = join_by(idLugar, lat, lng)`

personaje_with_places

## # A tibble: 10,188 × 7
##    idPersonaje idLugar   lat    lng region     latR   lngR
##          <dbl>   <dbl> <dbl>  <dbl> <chr>     <dbl>  <dbl>
##  1           1       4  37.9 -4.78  Córdoba    37.9 -4.78 
##  2           7       4  37.9 -4.78  Córdoba    37.9 -4.78 
##  3           8       8  36.5 -5.93  Algeciras  36.1 -5.45 
##  4           9       4  37.9 -4.78  Córdoba    37.9 -4.78 
##  5        4159       4  37.9 -4.78  Córdoba    37.9 -4.78 
##  6          12      10  41.6 -0.883 Zaragoza   41.6 -0.883
##  7          19      15  37.2 -5.10  Córdoba    37.9 -4.78 
##  8          21      17  39.2 -0.435 Valencia   39.5 -0.375
##  9          21      18  38.0 -1.13  Murcia     38.0 -1.13 
## 10          22      19  39.0 -0.519 Valencia   39.5 -0.375
## # ℹ 10,178 more rows

Now, let’s left_join with modeled decades. Essentially, this will create lots of “duplicates” for each person—a single person-place row will be duplicated as many times as there are decades for that individual.

personaje_with_places_and_dates <- personaje_with_places %>%
  left_join(personaje_with_dates)

personaje_with_places_and_dates

## # A tibble: 82,261 × 8
##    idPersonaje idLugar   lat   lng region   latR  lngR decadas
##          <dbl>   <dbl> <dbl> <dbl> <chr>   <dbl> <dbl>   <dbl>
##  1           1       4  37.9 -4.78 Córdoba  37.9 -4.78     120
##  2           1       4  37.9 -4.78 Córdoba  37.9 -4.78     130
##  3           1       4  37.9 -4.78 Córdoba  37.9 -4.78     140
##  4           1       4  37.9 -4.78 Córdoba  37.9 -4.78     150
##  5           1       4  37.9 -4.78 Córdoba  37.9 -4.78     160
##  6           1       4  37.9 -4.78 Córdoba  37.9 -4.78     170
##  7           1       4  37.9 -4.78 Córdoba  37.9 -4.78     180
##  8           7       4  37.9 -4.78 Córdoba  37.9 -4.78     350
##  9           7       4  37.9 -4.78 Córdoba  37.9 -4.78     360
## 10           7       4  37.9 -4.78 Córdoba  37.9 -4.78     370
## # ℹ 82,251 more rows
…
