4 Data Manipulation I | HDIS: Analysis of Prosopographical Data–with R
…
Let’s give it a try.

For example, we can count how many members each family has:

miembrosDeFamilias <- personajeLite %>%
  filter(idFamilia != 0) %>%
  group_by(idFamilia) %>%
  summarize(miembros = n()) %>%
  arrange(desc(miembros))

And if we print, we can see the most prominent families, in terms of the numbers of their members who made it into historical records of al-Andalus:

> familias
# A tibble: 813 × 2
   idFamilia miembros
       <dbl>    <int>
 1        89       23
 2       255       23
 3       459       20
 4        20       18
 5        44       18
 6        21       16
 7       700       16
 8         2       15
 9         9       15
10        17       15
# ℹ 803 more rows
# ℹ Use `print(n = ...)` to see more rows

In a similar manner we can calculate the average age of members of each family:

familiasEdadPromedio <- personajeLite %>%
  filter(idFamilia != 0) %>%
  group_by(idFamilia) %>%
  summarize(edadPromedio = mean(edad, na.rm = TRUE),
            miembros = n()) %>%
  arrange(desc(edadPromedio))

Some results from the top (note, that we now included two operations into the summarize() function; it is important to keep in mind that all summarization steps must be put into the same summarization function!):

> familiasEdadPromedio
# A tibble: 813 × 3
   idFamilia edadPromedio miembros
       <dbl>        <dbl>    <int>
 1       724          100        2
 2       290           99        2
 3       224           98        4
 4       207           95        3
 5       453           95        2
 6       551           95        2
 7       561           95        6
 8       158           94        2
 9       484           94        2
10        77           93        2
# ℹ 803 more rows
# ℹ Use `print(n = ...)` to see more rows

We an also select the longest living member from each family (top_n(1, wt = edad)—1 can be replaced with the desired number).

familiasMasAntiguo <- personajeLite %>%
  filter(idFamilia != 0) %>%
  group_by(idFamilia) %>%
  top_n(1, wt = edad) %>%
  arrange(desc(edad)) %>%
  select(-nombreA)

Results (I have dropped the column with the name, so that the results are more readable here):

> familiasMasAntiguo
# A tibble: 502 × 6
# Groups:   idFamilia [487]
   idPersonaje idFamilia nacimiento muerte  edad muerteCE    
         <dbl>     <dbl>      <dbl>  <dbl> <dbl> <chr>       
 1        2455        44        190    295   118 295AH/908CE 
 2        1307       277         NA    577   100 577AH/1182CE
 3        9407       724        514    614   100 614AH/1217CE
 4        5540       290        603    702    99 702AH/1303CE
 5        4257       449        447    545    98 545AH/1150CE
 6        6705       224        483    581    98 581AH/1185CE
 7        6070       212        201    297    96 297AH/910CE 
 8        9875       605        272    368    96 368AH/979CE 
 9       10700       537        299    394    96 394AH/1004CE
10        2420       453        326    421    95 421AH/1030CE
# ℹ 492 more rows
# ℹ Use `print(n = ...)` to see more rows
…
First, let’s get a light version of family data — essentially, just the English name of each family (idFamilia is the key column and must always be preserved).

familiaDataLite <- PUA$familia %>%
  select(idFamilia, nombreE)

Now, we can take all the results that we generated above and have much more readable results:

Families with the highest numbers of members:

miembrosDeFamilias <- miembrosDeFamilias %>%
  left_join(familiaDataLite, by = c("idFamilia" = "idFamilia"))

> miembrosDeFamilias
# A tibble: 813 × 3
   idFamilia miembros nombreE             
       <dbl>    <int> <chr>               
 1        89       23 Banū l-Bağī 1       
 2       255       23 Banū Saʿīd al-ʿAnsī 
 3       459       20 Banū Ḥağğağ al-Laḫmī
 4        20       18 Banū Abī Ğamra      
 5        44       18 Banū ʿAmīra         
 6        21       16 Banū Ḫalīl al-Sakūnī
 7       700       16 Banū Hāniʾ          
 8         2       15 Banū Dīnār          
 9         9       15 Banū Qāsim b. Hilāl 
10        17       15 Banū Wāğib          
# ℹ 803 more rows
# ℹ Use `print(n = ...)` to see more rows

Families with the highest average age.

familiasEdadPromedio <- familiasEdadPromedio %>%
  left_join(familiaDataLite, by = c("idFamilia" = "idFamilia"))

> familiasEdadPromedio
# A tibble: 813 × 4
   idFamilia edadPromedio miembros nombreE                    
       <dbl>        <dbl>    <int> <chr>                      
 1       724          100        2 Banū Saʿāda al-Nafzī       
 2       290           99        2 Banū Hārūn 2               
 3       224           98        4 Banū l-Ḥallāʾ / Banū Ṯaʿbān
 4       207           95        3 Banū l-Gaššāʾ              
 5       453           95        2 Banū l-Bağğānī             
 6       551           95        2 Banū Ğarīr                 
 7       561           95        6 Banū Sulaymān al-Gāfiqī    
 8       158           94        2 Banū Kawzān                
 9       484           94        2 Banū l-Šabulārī            
10        77           93        2 Banū Ḥunayn                
# ℹ 803 more rows
# ℹ Use `print(n = ...)` to see more rows

Families with the longest living members:

familiasMasAntiguo <- familiasMasAntiguo %>%
  left_join(familiaDataLite, by = c("idFamilia" = "idFamilia")) %>%
  select(-nacimiento, -muerte)

> familiasMasAntiguo
# A tibble: 502 × 5
# Groups:   idFamilia [487]
   idPersonaje idFamilia  edad muerteCE     nombreE                    
         <dbl>     <dbl> <dbl> <chr>        <chr>                      
 1        2455        44   118 295AH/908CE  Banū ʿAmīra                
 2        1307       277   100 577AH/1182CE Banū ʿAmīra                
 3        9407       724   100 614AH/1217CE Banū Saʿāda al-Nafzī       
 4        5540       290    99 702AH/1303CE Banū Hārūn 2               
 5        4257       449    98 545AH/1150CE Banū Abī l-Rağāʾ           
 6        6705       224    98 581AH/1185CE Banū l-Ḥallāʾ / Banū Ṯaʿbān
 7        6070       212    96 297AH/910CE  Banū Našr                  
 8        9875       605    96 368AH/979CE  Banū Fahd                  
 9       10700       537    96 394AH/1004CE Banū Barṭāl                
10        2420       453    95 421AH/1030CE Banū l-Bağğānī             
# ℹ 492 more rows
# ℹ Use `print(n = ...)` to see more rows
…
# creating the summary
lugarSummary <- lugar %>%
  group_by(idLugar, century) %>%
  summarize(individuals = n()) %>%
  filter(idLugar %in% lugarTop10$idLugar) %>%
  left_join(lugarNombres)

Ok, our summary looks like this:

> lugarSummary
# A tibble: 78 × 4
# Groups:   idLugar [10]
   idLugar century individuals nombre_castellano
     <dbl>   <dbl>       <int> <chr>            
 1      24     300           1 Almería          
 2      24     400           6 Almería          
 3      24     500         116 Almería          
 4      24     600         194 Almería          
 5      24     700          52 Almería          
 6      24     800          60 Almería          
 7      24     900           1 Almería          
 8       4     100           2 Córdoba          
 9       4     200          33 Córdoba          
10       4     300         220 Córdoba          
# ℹ 68 more rows
# ℹ Use `print(n = ...)` to see more rows
…
We can also return it back into its original long state in the following manner:

lugarSummaryLong <- lugarSummaryWide %>%
  pivot_longer(!century, names_to = "places", values_to = "individuals") %>%
  arrange(places)

Results will look like:

> lugarSummaryLong
# A tibble: 100 × 3
   century places  individuals
     <dbl> <chr>         <int>
 1     100 Almería          NA
 2     200 Almería          NA
 3     300 Almería           1
 4     400 Almería           6
 5     500 Almería         116
 6     600 Almería         194
 7     700 Almería          52
 8     800 Almería          60
 9     900 Almería           1
10    1000 Almería          NA
# ℹ 90 more rows
# ℹ Use `print(n = ...)` to see more rows
…
