5 Data Manipulation II | HDIS: Analysis of Prosopographical Data–with R
…
## Joining with `by = join_by(idFamilia)`

top5families

## # A tibble: 21 × 5
##    totalMembers nombreE              lugar          lugarOrigen       lugarTraslado
##           <int> <chr>                <chr>          <chr>             <chr>        
##  1           23 Banū l-Bağī 1        <NA>           <NA>              <NA>         
##  2           23 Banū Saʿīd al-ʿAnsī  Alcalá la Real <NA>              Granada      
##  3           20 Banū Ḥağğağ al-Laḫmī Sevilla        <NA>              <NA>         
##  4           18 Banū Abī Ğamra       Murcia         <NA>              <NA>         
##  5           18 Banū ʿAmīra          Tudmīr         <NA>              <NA>         
##  6           16 Banū Ḫalīl al-Sakūnī Niebla         <NA>              <NA>         
##  7           16 Banū Hāniʾ           Granada        <NA>              <NA>         
##  8           15 Banū Dīnār           Córdoba        Toledo            <NA>         
##  9           15 Banū Qāsim b. Hilāl  Córdoba        <NA>              <NA>         
## 10           15 Banū Wāğib           Valencia       Beja (al-Andalus) <NA>         
## # ℹ 11 more rows
…
