12 Modeling Complex Entities | HDIS: Analysis of Prosopographical Data–with R
…
Now we need to aggregate all locations with these magnets. A way to do that is to calculate the distance between all the places and these magnets. (BTW, feel free to change this list!). In the code below we will connect our PUA$lugar with our magnets (imanes) in such a way that each place in our table will get joined with each and every magnet.

lugares_con_imanes <- PUA$lugar %>%
  merge(imanes, by = NULL) %>%
  # REMOVE ALL PLACES WITH NA
  filter(!is.na(lat)) %>%
  filter(FLAG_alandalus == 1) %>%
  arrange(idLugar) %>%
  select(-notas, -descripcion)

lugares_con_imanes <- as_tibble(lugares_con_imanes)

lugares_con_imanes

## # A tibble: 4,764 × 9
##    idLugar FLAG_alandalus nombre nombre_castellano   lat   lng region       latR
##      <dbl>          <dbl> <chr>  <chr>             <dbl> <dbl> <chr>       <dbl>
##  1       4              1 قرطبة  Córdoba            37.9 -4.78 Córdoba      37.9
##  2       4              1 قرطبة  Córdoba            37.9 -4.78 Zaragoza     41.6
##  3       4              1 قرطبة  Córdoba            37.9 -4.78 Murcia       38.0
##  4       4              1 قرطبة  Córdoba            37.9 -4.78 Sevilla      37.4
##  5       4              1 قرطبة  Córdoba            37.9 -4.78 Granada      37.2
##  6       4              1 قرطبة  Córdoba            37.9 -4.78 Málaga       36.7
##  7       4              1 قرطبة  Córdoba            37.9 -4.78 Mallorca (…  39.6
##  8       4              1 قرطبة  Córdoba            37.9 -4.78 Valencia     39.5
##  9       4              1 قرطبة  Córdoba            37.9 -4.78 Toledo       39.9
## 10       4              1 قرطبة  Córdoba            37.9 -4.78 Algeciras    36.1
## # ℹ 4,754 more rows
## # ℹ 1 more variable: lngR <dbl>
…
Note: since ChatGPT is a generative model, it will always try to give you an answer, but it does not mean that the answer will be correct. One should always keep this in mind and cross-examine ChatGPT results. In this specific case we can simply goggle distances between specific places and check how close those results are to what we have calculated with ChatGPT-provided function. One other thing to keep in mind: ChatGPT often tries to use some libraries as shortcuts to solving specific problems, but this approach tends to fail quite often with R. For example, ChatGPT initially suggested code that uses some obscure R library—and it did not work. Instead I asked to implement the Harvestine formula from scratch and package it into a function that I can reuse.

Now, let’s calculate these distances in our data and pick the closest graviton (i.e., a prominent location for which we have the shortest distance):

lugares_con_imanes_ultimas <- lugares_con_imanes %>%
  mutate(distancia = haversine(lng, lat, lngR, latR)) %>%
  group_by(idLugar) %>%
  top_n(-1, wt = distancia)

lugares_con_imanes_ultimas

## # A tibble: 397 × 10
## # Groups:   idLugar [397]
##    idLugar FLAG_alandalus nombre    nombre_castellano   lat    lng region   latR
##      <dbl>          <dbl> <chr>     <chr>             <dbl>  <dbl> <chr>   <dbl>
##  1       4              1 قرطبة     Córdoba            37.9 -4.78  Córdoba  37.9
##  2       6              1 إلبيرة    Elvira             37.2 -3.71  Granada  37.2
##  3       7              1 قلعة يحصب Alcalá la Real     37.4 -3.95  Granada  37.2
##  4       8              1 شذونة     Sidonia            36.5 -5.93  Algeci…  36.1
##  5      10              1 سرقسطة    Zaragoza           41.6 -0.883 Zarago…  41.6
##  6      15              1 أشونة     Osuna              37.2 -5.10  Córdoba  37.9
##  7      17              1 جزيرة شقر Alcira             39.2 -0.435 Valenc…  39.5
##  8      18              1 مرسية     Murcia             38.0 -1.13  Murcia   38.0
##  9      19              1 شاطبة     Játiva             39.0 -0.519 Valenc…  39.5
## 10      20              1 إشبيلية   Sevilla            37.4 -5.98  Sevilla  37.4
## # ℹ 387 more rows
## # ℹ 2 more variables: lngR <dbl>, distancia <dbl>
…
PUA_personaje_decadas <- PUA_personaje_fechas_modelled %>%
  add_row(PUA_personaje_fechas_existing) %>%
  arrange(idPersonaje) %>%
  filter(!is.na(muerte)) %>%
  mutate(nacimiento1 = ifelse(!is.na(nacimiento), nacimiento, muerte - edad_extrapolated)) %>%
  mutate(decada_n = ceiling(as.numeric(nacimiento1 / 10)) * 10) %>%
  mutate(decada_m = ceiling(as.numeric(muerte / 10)) * 10) %>%
  select(idPersonaje, decada_n, decada_m) %>%
  group_by(idPersonaje) %>%
  summarize(decadas = list(seq(from = decada_n, to = decada_m, by = 10))) %>%
  unnest(decadas)

PUA_personaje_decadas

## # A tibble: 56,166 × 2
##    idPersonaje decadas
##          <dbl>   <dbl>
##  1           1     120
##  2           1     130
##  3           1     140
##  4           1     150
##  5           1     160
##  6           1     170
##  7           1     180
##  8           7     350
##  9           7     360
## 10           7     370
## # ℹ 56,156 more rows
…
